{
  "errors": [
    {
      "code": "badinteger",
      "text": "Invalid value \"foo\" for integer parameter \"pageids\".",
      "module": "query"
    }
  ],
  "docref": "See https://en.wikipedia.org/w/api.php for API usage. Subscribe to the mediawiki-api-announce mailing list at &lt;https://lists.wikimedia.org/mailman/listinfo/mediawiki-api-announce&gt; for notice of API deprecations and breaking changes.",
  "servedby": "mw1358"
}
