{
  "batchcomplete": true,
  "query": {
    "pages": [
      {
        "title": "Talk:",
        "invalidreason": {
          "code": "title-invalid-empty",
          "text": "El título de la página solicitada está vacío o contiene solo el nombre de un espacio de nombres."
        },
        "invalid": true
      }
    ]
  }
}
