{
  "batchcomplete": true,
  "query": {
    "normalized": [
      {
        "fromencoded": false,
        "from": "notfound",
        "to": "Notfound"
      }
    ],
    "pages": [
      {
        "ns": 0,
        "title": "Notfound",
        "missing": true
      }
    ]
  }
}
